PropertyName,PropertyDisplayName,Value,Group
QueuingCondition,Queuing Condition,False,Agent Filtering
SatmapMessageBroadcastPort,Bridge EngineConnection Port,5000,Bridge Service
BridgeServiceAlertConnectionPort,Notifier Connection Port,7000,Bridge Service
BridgeServiceConnectionRetryTime,Bridge EngineConnection Retry Time(Secs),2,Bridge Service
AlertServiceKeepAliveTime,Notifier Application Keep Alive Time(Secs),30,Bridge Service
BridgeServicePortalConnectionPort,Bridge Service Portal Messaging Port,9000,Bridge Service
AlertsActive,Enable Call Popup Messages,True,Bridge Service
StatsServerActive,Master Stats Server Active,True,Bridge Service
BridgeServiceDataRefreshTime,Engine Data Sync Interval,15000,Bridge Service
ApplicationStatsRefreshTime,Notifier Stats Pull Time (in Secs),60,Bridge Service
BridgeServiceStatsUpdateTime,Generic Stats Cache UpdateTime (in Secs),10,Bridge Service
BridgeServiceStatsIntervalDuration,Notifier Stats Reset Interval (in Mins),1440,Bridge Service
EnableCallAlerts,Enable Call Popups On Notifier App,True,Bridge Service
EnableSkillStats,Enable Skill Statistics on Notifier App,True,Bridge Service
SoftResetEnable,Enable Soft Reset,True,Bridge Service
SendSwitchStatusToApps,Send Switch Status To Notifier Apps,False,Bridge Service
BridgeServiceStatisticsPort,Generic Statistics Port,9001,Bridge Service
GlobalServiceLevelSkillInSec,Global Service Level for Skill,20,Bridge Service
ArsStatsUpdateTime,Switch Stats Cache Update Time (Secs),8,Bridge Service
ArsStatisticsPort,Avaya RtGateway Statistics Port,-1,Bridge Service
ArsInactivityTimeOut,Avaya RtGateway Inactivity Timeout (Secs),60,Bridge Service
EmailAlertsXML,Generic Email Alerts XML Configuration,<EmailAlertsXML>  <EmailRecipients>faraz.fazil@trgworld.com</EmailRecipients>  <EmailAlertDelayMins>5</EmailAlertDelayMins>  <AlertTresholdsXML>   <AgentReservedTimeSecs>30</AgentReservedTimeSecs>   <CallsInQWithAgentsAvail>   <OCWSecs>60</OCWSecs>   <AgentFreeTimeSecs>30</AgentFreeTimeSecs>   </CallsInQWithAgentsAvail>  </AlertTresholdsXML>  </EmailAlertsXML>,Bridge Service
CiscoRTStatsPort,Cisco Gateway Statistics Port,9006,Bridge Service
CiscoRTInactivityTimeOut,Cisco Gateway Inactivity Timeout in Secs,60,Bridge Service
OneDayTimerOffsetValue,One Day Timer Offset Value (Minutes),0,Bridge Service
GenericRtTimerResetValue,Generic RT Timer Reset Value (Minutes),30,Bridge Service
UseCallQueueTime,UseCallQueueTime,False,Bridge Service
ExecStatisticsPort,Executive Dashboard Statistics Port,6000,Bridge Service
ExecAggregatorServiceIP,Executive Aggregator Service IP,127.0.0.1,Bridge Service
EnableResetTimerCalibration,Enable Reset Timer Calibration,False,Bridge Service
EngineInfoRequestIntervalSecs,Bridge to Engine EWT Request Interval (Secs),15,Bridge Service
EnableHaInstanceFailOver,Enable HA Instance Fail Over,False,Bridge Service
EnableOnRequestArsStatsUpdate,Enable OnRequest Ars Stats Update,False,Bridge Service
OnRequestArsUpdateThreshold,OnRequest Ars Update Threshold (milliSeconds),500,Bridge Service
Dynamic Statistics Port,Dynamic Statistics Port,-1,Bridge Service
Enable VDN Stats Processing,Enable VDN Stats Processing,False,Bridge Service
Enable Warm Transfer Failsafe,Enable Warm Transfer Failsafe,False,Bridge Service
Enable Stats Preservation,Enable Stats Preservation,False,Bridge Service
Enable L1 Only Reporting,Enable L1 Only Reporting,False,Bridge Service
Periodic Interval for Duplicate Call Alert,Periodic Interval for Call Related Alerts,120,Bridge Service
Suppress BTN Transmission,Suppress BTN Transmission,False,Bridge Service
AvayaStatsRelaySettingXML,Avaya Stats Relay Setting,<AvayaStatsRelayXml>
<ReserveSkillingStats>true</ReserveSkillingStats>
<isNoAnsRedirectStatsVersion>true</isNoAnsRedirectStatsVersion>
<isAcwStatsVersion>true</isAcwStatsVersion>
</AvayaStatsRelayXml>,Bridge Service
Portal Stats Relay Timer,Portal Stats Relay Timer (Sec),8,Bridge Service
Dynamic Skill Expression Pair Separator,Dynamic Skill Expression Pair Separator,#,Bridge Service
Dynamic Skill Expression CIQ Separator,Dynamic Skill Expression CIQ Separator,",",Bridge Service
Redirected Call Threshold,Redirected Call Threshold,15,Bridge Service
AACC Interval To Date Minutes,AACC Interval To Date Minutes,15,Bridge Service
AACC Stats Port,AACC Stats Port,9003,Bridge Service
AACC Stats Update Time,AACC Stats Update Time,8,Bridge Service
AACC Start Time,AACC Start Time,08:00,Bridge Service
EnableCallVariableTransmission,Enable Call Variable Transmission,False,Call Variable Transmission
CallVariableParserConfiguration,Call Variable Parser Configuration,N/A,Call Variable Transmission
CallVariableLookupKey,Call Variable Lookup Key,UUI,Call Variable Transmission
SwitchType,Switch Type,AACC,Core Layer
EngineID,EngineID,Test_AACC,Core Layer
EnableLowLevelLogging,Enable low level logging,False,Core Layer
EvaluatorEnableL1,Enable Evaluator for L1,True,Core Layer
EvaluatorEnableL2,Enable Evaluator for L2,True,Core Layer
LogFilePath,Log File Path,c:\logs\satmap.txt,Core Layer
NoOfDaysToKeepDBFiles,Delete Async Data File After (Days),90,Core Layer
Use Preemptive Evaluator,Enable Timed Evaluation,False,Core Layer
Evaluator Timeout(ms),Evaluation Timeout,50,Core Layer
Ready Queue Size,Ready Queue Size,10,Core Layer
IgnoreCase,Ignore Case,False,Core Layer
DBFileSizeInMB,Async Data File Size,25,Core Layer
Demographic_FilebasedMemory,Enable File based Demographics,False,Core Layer
StatsRefreshWindowLength,Stats Refresh Interval,5,Core Layer
Use Count Based SLA,Use Count Based SLA,False,Core Layer
Max SLA,Max SLA,-1,Core Layer
UseGenericDemographics,Enable Generic Demographics Feature,False,Core Layer
EnableServiceObjectiveForL2,Enable Service Objective For L2,False,Core Layer
BTN Filter Expression,BTN Filter Expression,None,Core Layer
WatcherWarningTimeout,Watcher Warning Timeout (In Milliseconds),5000,Core Layer
WatcherErrorTimeout,Watcher Error Timeout (In Milliseconds),5000,Core Layer
Database back-up file path,Database back-up file path,c:\AsyncDbBackup,Core Layer
ExactBTNLength,Exact BTN Length,-1,Core Layer
BTNPrefixString,BTN Prefix String,4567*******,Core Layer
Enable DCE Queue Transmission,Enable DCE Queue Transmission,False,Core Layer
IntrospectionServerPort,Introspection Server Port,9015,Core Layer
EnableIntrospection,Enable Introspection,True,Core Layer
DCE Cleanse Interval,DCE Cleanse Interval,6,Core Layer
OverwriteAttachedData,Overwrite Attached Data,False,Core Layer
EnableMSMQFailsafe,Enable MSMQ Failsafe,False,Core Layer
AfinitiIndicators,Afiniti Indicators,<xml></xml>,Core Layer
CallGroupRepercentilingEnabled,Call Group Repercentiling Enabled,False,Core Layer
Ratio Algorithm,Ratio Algorithm,Call Wait Time,Core Layer
DisableWatcherThread,Disable Watcher Thread,False,Core Layer
DBCString,Configuration DBC String,fHlAm5VDUAbkfWypqta9iryb3EDV0mZhu/KCLICC7OfKzp+CafxvvQw8/ArBEqIRW3kcO391M54A9x0i5l/gcDPJczonjRqBGXUnzCQU1pO9u07R2f3l99UAUl5e6OCDcKKlnshq+kYzQquCvX2wZeRSMtri/XbTXI7Y+5kvZDAp287C46Rlkkvs/9Eftx5ydb7edTctHQdovT7KinrV1w==,DataBase Connectivity Settings
ReportingDBCString,Reporting DBC String,o4vDEp5Yy0XPLEqaNNogHBRzSPzk4o3DQlz22UZSJkOvksZM4gKa623kR0UEnCR+oJ2QIKfGhYN8D/fFugx58fq6dsmHDSN4Z/LVElDG5fm6ZVAKxV0mGzUUQ0eR65sT+/oy18jJJoWx/d4p7s840K0R93lpjx/+3r129Ewfn8xJr92NFDx/OqgycdfbpPT14OU4Nu0o5xgXJwyApw9h7w==,DataBase Connectivity Settings
DBConnectRetryDelay,DB Connection Retry Delay,0,DataBase Connectivity Settings
DBConnectRetryCount,DB Connection Retry Count,2,DataBase Connectivity Settings
ExternalDBCString,ExternalDBCString,2uaIZ9t7JuOur+oOtVJxdPMrMIbmovX4OJGUTUDyvuHllwwlSoJLAahB5bL/0xPdyTKG2iyjGKIxtTU6+KjGCKnmBgBUY5NTq3rSs5kWdHsndg4HGQt7WgtjF/hsjc8Y++ugU6IXAou+68dRcLCHer1E7qaODQOcfl/DCE+gsYRInvidiRczBL6IBOnVlTeTHnXIloeG8U7rL1v9BJCsNw==,DataBase Connectivity Settings
Demographic_DBCString,Demographic DBC String,EwaZWVNeTusewp4WUXvlPGJbgPQlhSaHo3U0rjJwp1MU4XZolTWfvgJ1mg2XryEukn8CUaTMV3CGe0ZoBKM4VFEKEBKSJkODaDq8j0Bj1g+8WKMK391FN+7BWT8ew2EFHIgYQcKL1PGcy4qNkLV292nhdZeg+mPhfvwWLrlDpCb8sDktbrfQmzT9cYRYimAROiRu63n3ZE5vTCjwx5yvxQ==,DataBase Connectivity Settings
PrimaryServerType,Primary Database ServerType,MySql,DataBase Connectivity Settings
SecondaryServerType,Secondary Database ServerType,MySql,DataBase Connectivity Settings
SecondaryReportingDBCString,Secondary Reporting DBCString,mM1eYkeZqAl6X86Yzu1BtUWOhA+HKeTPP83E/pzmwu+82osaIZY3xspMFP9/u//soNd/2YThpErjvrFxYsx1LJlIDzQnxmtu0clqdj9xqRCUyWWU/IZmqC9LmHz5iBrLNHBA9uLY+PMqoIa1mj+BlVSkxSWHpFPzqpeCUbq/x2lwtKVOkRId+40vqXKu4i2LrTsD0K8CmSSkuuHYIP2p1Q==,DataBase Connectivity Settings
Enable Secondary Database,Enable Secondary Database,False,DataBase Connectivity Settings
PrimaryDbCommandTimeout,Primary Db CommandTimeout,120,DataBase Connectivity Settings
SecondaryDbCommandTimeout,Secondary Db CommandTimeout,30,DataBase Connectivity Settings
NumberOfConsecutiveDBErrorsToTriggerFailsafe,Number of consecutive DB errors to trigger failsafe,-1,DataBase Connectivity Settings
DBCommandTimeout,DB Command Timeout,60,DataBase Connectivity Settings
DataPointsForAvgAgentWaitTime,Data Points for Average Agent Wait Time in Agent SLA,10,Dynamic Agent SLA
AAWT Multiplier,AAWT Multiplier,1.0,Dynamic Agent SLA
UsePriorityBasedAAWT,Use PriorityBased AAWT,False,Dynamic Agent SLA
UseEWTInCallSLA,Enable EWT Usage As Call SLA,False,Dynamic Call SLA
AgentPerformance,Agent Performance Refresh,-1,Evaluator
CallGroups,CallGroup Refresh,-1,Evaluator
Parameters,EvaluatorParameters Refresh,-1,Evaluator
Demographic_Enabled,Enable Runtime Demographics Lookup,True,Evaluator
AgentGroups,AgentGroups Refresh,-1,Evaluator
BTNHistoryRefresh,BTN History Refresh Interval(Minutes),-1,Evaluator
BTN History Settings,BTN History Settings,<xml></xml>,Evaluator
SkewParameters,Skew Parameter Refresh(Minutes),-1,Evaluator
NPANXXUse,NPANXX Refresh(Minutes),-1,Evaluator
OnOffAgentPerformanceStats,OnOffAgentPerformanceStats,-1,Evaluator
AgentPayout,AgentPayout,-1,Evaluator
SkillSetCallGroupRates,SkillSetCallGroupRates,-1,Evaluator
AgentCluster,AgentCluster,-1,Evaluator
Enable Heartbeat,Enable Heartbeat,False,Heartbeat Configuration
Enable Pre-Routing Decision,Enable Pre-Routing Decision,False,ICM Level Pre-Routing Settings
EnableDataBroadcast,Enable Data Broadcast,False,ICM Level Pre-Routing Settings
EnableLookupDataForwarding,Enable lookup data forwarding,False,ICM Level Pre-Routing Settings
EnableEntityReconciling,Enable Entity Reconciling,False,ICM Level Pre-Routing Settings
Masking Configuration,Masking Configuration,<?xml version="1.0" encoding="utf-16"?>  <ArrayOfMaskingInformation xmlns:xsi="http://www.w3.org/2001/XMLSchema-instance" xmlns:xsd="http://www.w3.org/2001/XMLSchema">  </ArrayOfMaskingInformation>,Masking Configuration
FullOff Configuration,Full Off,Test_AACC=False,Program Based Configurations
Program Based Monitor Mode Configuration,Program Based Monitor Mode Configuration,Test_AACC=False,Program Based Configurations
Reserve Skilling Enabled,Reserve Skilling Enabled,False,Reserve Skilling Configurations
Use VHTs EWT For Reserve Skilling,Use VHTs EWT For Reserve Skilling,False,Reserve Skilling Configurations
EnableSkillBasedSOForPBRInL2,Enable Skill Based Service Objective For Intelligent Routing In L2,False,Service Objective
EnableSkillBasedSOForOffRoutingInL2,Enable Skill Based Service Objective For Off Routing In L2,False,Service Objective
EnableVDNBasedSOForPBRInL2,Enable VDN Based Service Objective For Intelligent Routing In L2,False,Service Objective
EnableVDNBasedSOForOffRoutingInL2,Enable VDN Based Service Objective For Off Routing In L2,False,Service Objective
SMTPServer,SMTP Server,10.80.10.141,SMTP Section
EmailFrom,Email Address (From),dontknow@satmapinc.com,SMTP Section
EmailTo,Email Address (To),dontknow@satmapinc.com,SMTP Section
AlertRecipientsAddress,Alert Recipients Email Addresses,dontknow@satmapinc.com,SMTP Section
SmtpUsername,SMTP Username,NA,SMTP Section
SmtpPort,SMTP Port,0,SMTP Section
SmtpPassword,SMTP Password,NA,SMTP Section
MonitorAppWebAPITimeOut,MonitorAppWebAPITimeOut,900,SMTP Section
RouteCallType,Route Call Type,direct,State Layer
MonitorServicePort,Monitor Service Port,9999,State Layer
NumberOfThreadToInit,Number Of Switch Request Threads,100,State Layer
MonitorDataRefreshInterval,Monitor Data Refresh Interval (milliseconds),1800000,State Layer
MonitorPublishDataIntervalInSeconds,Monitor Data Publish Interval (Seconds),2,State Layer
MonitorMode,Enable Monitor Mode,False,State Layer
L1FailureNotification,Enable L1 Failure Notification,True,State Layer
ACWAsIdleTime,Enable ACW time to be Idle time,False,State Layer
SwitchTimeZone,Switch Time Zone,(UTC-05:00) Indiana (East) | US Eastern Standard Time,State Layer
SwitchTimeDifferenceThreshold,Switch Time Difference Threshold,30,State Layer
SyncServerTimeWithSwitchTime,Enable Sync Satmap Server Time With Switch,False,State Layer
L1ModeOnly,Enable L1 Mode Only,False,State Layer
BenchMarkOff_ReturnCallsToSwitch,Return Call To Switch (Benchmark Off),None,State Layer
CallDiscardTimeoutInMinutes,Call Discard Timeout (Minutes),60,State Layer
L2 Strategy,L2 Strategy,Default,State Layer
Vector Tracing,Vector Tracing,False,State Layer
IgnoreAgentPriorityInL1,Ignore Agent Priority in L1,False,State Layer
MonitorDataCollectorOn,Monitor Data Collector On,True,State Layer
Disable Call State Failsafe,Disable CallState FailSafe,False,State Layer
Timer Resolution Enabled,Timer Resolution Enabled,True,State Layer
Timer Resolution Value,Timer Resolution Value (Milli Seconds),1,State Layer
EWT Threshold For Email Alert,EWT Threshold For Email Alert,-1,State Layer
Agent Attribute Mapping,Agent Attribute Mapping,"Attribute1:Param1,Attribute2:Param2,Attribute3:Param3,Attribute4:Param4,Attribute5:Param5",State Layer
Enable Agent Attribute Loading,Enable Agent Attribute Loading,False,State Layer
Enable Precision Queuing,Enable Precision Queuing,False,State Layer
Enable Multi-channel Interactions,Enable Multi-Channel Interactions,False,State Layer
UseGlobalOrderingDuringRelease,Use Global Ordering During Release,False,State Layer
CallReleaseDelay,Call Release Delay,0,State Layer
TolerateOutOfSequenceRouteResponse,Tolerate out of sequence route response,False,State Layer
GroupSettings,Group Settings,<SwitchInterfaceConfigurations>
  <GroupSettings>
    <Group Id="5">
      <CctConfigurations>
        <CCtConfiguration>
            <CCMAConfiguration>
            <Ccmaip>10.32.17.44</Ccmaip>
            <SoapUrl>http://10.32.17.44/WebServices/OpenInterfaces/soap.svc</SoapUrl>
            <AuthenticationUrl>http://10.32.17.44/WebServices/Authentication/Service.asmx</AuthenticationUrl>
            <Username>webadmin</Username>
            <Password>Password2</Password>
            <RetryCount>5</RetryCount>
          </CCMAConfiguration>
          <CallPresentationClassesNotReadyTimeSettings>
            <CallPresentationClassNotReadySetting ClassName="Call_Centre_Administrator" NotReadyTime="0"/>
            <CallPresentationClassNotReadySetting ClassName="Test" NotReadyTime="0"/>
          </CallPresentationClassesNotReadyTimeSettings>
          <Domain>10.32.17.44</Domain>
          <ServerIp>10.32.17.44</ServerIp>
          <Port>29373</Port>
          <UserName>cct</UserName>
          <Password>Afiniti123!</Password>
          <EnableSkillsetChangeQuery>true</EnableSkillsetChangeQuery>
          <SkillsetChangeQueryDelay>4000</SkillsetChangeQueryDelay>
        </CCtConfiguration>
      </CctConfigurations>
      <HdxProviderApplicationConfigurations>
        <HdxProviderApplicationConfiguration>
          <Ver>0</Ver>
          <ProviderId>12345</ProviderId>
          <ServerIp>10.32.17.44</ServerIp>
          <ClientIp>10.32.7.165</ClientIp>
          <AppName>Satmap</AppName>
          <HdxParamersSettings>
            <LoopCountIndex>0</LoopCountIndex>
            <RoutingWindowTypeIndex>1</RoutingWindowTypeIndex>
	    <CDNIndex>2</CDNIndex>
            <CallerIndex>3</CallerIndex>
            <CalleeIndex>4</CalleeIndex>
            <CalledIndex>5</CalledIndex>
            <UserDataIndex>6</UserDataIndex>
            <HdxInfoTypeIndex>1</HdxInfoTypeIndex>
            <RouteEndReasonIndex>1</RouteEndReasonIndex>
            <SatmapResultIndex>0</SatmapResultIndex>
            <SelectedRouteIndex>1</SelectedRouteIndex>
            <SelectedSkillIndex>2</SelectedSkillIndex>
            <ResponseUserDataIndex>3</ResponseUserDataIndex>
            <SatmapRouteString>SMROUTE</SatmapRouteString>
            <SwitchRouteString>SROUTE</SwitchRouteString>
            <LoopbackString>RETRY</LoopbackString>
            <HdxInfoTypeRouteEndString>ROUTE_END</HdxInfoTypeRouteEndString>
            <HdxInfoRouteEndSuccessString>SUCCESS</HdxInfoRouteEndSuccessString>
            <HdxInfoRouteEndFailureAgentNotAvaialbleString>NOAGENT</HdxInfoRouteEndFailureAgentNotAvaialbleString>
            <HdxInfoRouteEndFailureString>GENERIC_ERROR</HdxInfoRouteEndFailureString>
            <HdxInfoRouteEndDefaultString>DEFAULT</HdxInfoRouteEndDefaultString>
          </HdxParamersSettings>
        </HdxProviderApplicationConfiguration>
      </HdxProviderApplicationConfigurations>
    </Group>
  </GroupSettings>
  <SwitchInterfaceServerSettings>
    <Host>127.0.0.1</Host>
    <Port>59500</Port>
  </SwitchInterfaceServerSettings>
  <GenericSwitchInterfaceSettings>
    <UseWebServiceInterface>false</UseWebServiceInterface>
    <LocalWebServiceUrl>http://localhost/GenericSwitchInterfaceWS</LocalWebServiceUrl>
    <SwitchInterfaceHost>127.0.0.1</SwitchInterfaceHost>
    <SwitchInterfacePort>59500</SwitchInterfacePort>
    <ReconnectionTry Count="-1" Delay="2" />
  </GenericSwitchInterfaceSettings>
</SwitchInterfaceConfigurations>,Switch
Enable VHT Callback Processing,Enable VHT Callback Processing,False,Virtual Hold Configurations
